{
  "ret": 0,
  "code": 200,
  "data": {
    "pagination": {
      "total": 12,
      "totalPage": 2,
      "pageSize": 10,
      "currentPage": 1
    },
    "list": [
      {
        "data": {},
        "hidden": false,
        "type": "scenic",
        "down": 0,
        "content": "南宁之夜挺热闹的，可以去逛一逛",
        "updater": "systemUser",
        "uid": "1378182765241126912",
        "top": 0,
        "user_info": {
          "country": "",
          "uid": "1378182765241126912",
          "gender": "未知",
          "province": "",
          "city": "",
          "email_cipher_text": "",
          "mobile_cipher_text": "QlcoR0zdH5hDaBPCSDrlaD05l/0mrjYdfN4T0B9df2Nsd21aaeHu0Dyz2NKrblc5DPgY5tzEiZi8ARcRIZvz5rfEnYGV3lDVW4tnCoKfmHlWTGBL4aMofEA/BUkMhr8Lz/5FtlAu6Axb5VURPGWKfYVPwjw+V+/wZLZKSFOrv3Y=",
          "mobile": "191****5436",
          "nickname": "微信用户",
          "email": "",
          "head_img_url": "https://thirdwx.qlogo.cn/mmopen/vi_32/POgEwh4mIHO4nibH0KlMECNjjGxQUq24ZEaGT4poC6icRiccVGKSyXwibcPq4BWmiaIGuG1icwxaQX6grC9VemZoJ8rg/132"
        },
        "ctitle": "南宁之夜",
        "appId": "0e0ef9c9983ead90",
        "disabled": 0,
        "id": "646443bf9da8201207e9fcd8",
        "up": 0,
        "image": [],
        "star": 5.0,
        "updateTime": 1684292586696,
        "commentTime": 1684292543194,
        "parentId": "answerTag",
        "createTime": 1684292543194,
        "sourceType": "wxapp",
        "tenantId": "295b1813beba4bdb83aac493d7379ca3",
        "cid": "63c60cd85772fd20a909f2b8",
        "lexiconType": 0,
        "status": 1
      },
      {
        "data": {},
        "hidden": false,
        "type": "scenic",
        "down": 0,
        "content": "不倒翁小姐姐  小哥哥   超级好    热情",
        "updater": "systemUser",
        "uid": "2966248363030283264",
        "top": 0,
        "user_info": {
          "country": "",
          "uid": "2966248363030283264",
          "gender": "未知",
          "province": "",
          "city": "",
          "mobile_cipher_text": "caE2ZLMYngWWOtpTePn/4CLVmcybQtWyZXFN1n8w0AR6hihPUdbe7VykD2zc6+i32PMEXwxE9rC5jtCAqa0X6E9LudQxc2Lsc2F9h/QZRXovadh7Z0laI2qm1N9uYx/U7IqSYy0MH3q3lFsVSGilNvdr5gGglQRiCVfSGnQiefI=",
          "mobile": "157****7600",
          "nickname": "微信用户",
          "head_img_url": "https://thirdwx.qlogo.cn/mmopen/vi_32/POgEwh4mIHO4nibH0KlMECNjjGxQUq24ZEaGT4poC6icRiccVGKSyXwibcPq4BWmiaIGuG1icwxaQX6grC9VemZoJ8rg/132"
        },
        "ctitle": "南宁之夜",
        "appId": "0e0ef9c9983ead90",
        "disabled": 0,
        "id": "63ef98959da8201207e9fc8a",
        "up": 0,
        "image": [],
        "star": 5.0,
        "updateTime": 1679282360452,
        "commentTime": 1676646549021,
        "parentId": "answerTag",
        "createTime": 1676646549021,
        "sourceType": "wxapp",
        "tenantId": "295b1813beba4bdb83aac493d7379ca3",
        "cid": "63c60cd85772fd20a909f2b8",
        "lexiconType": 0,
        "status": 1
      },
      {
        "data": {},
        "hidden": false,
        "type": "scenic",
        "down": 0,
        "content": "百越之地，不夜之城，南宁人的骄傲",
        "updater": "systemUser",
        "uid": "3013300754610981888",
        "top": 0,
        "user_info": {
          "country": "",
          "uid": "3013300754610981888",
          "gender": "未知",
          "province": "",
          "city": "",
          "mobile_cipher_text": "AWFb5oq04JK6MT6jIwFjOlLKVMGBril2chhmRBHDZ2YeBim0XRtRTX0uue+b8vdpwMTDe+YWlY+lGpOXBlk+s+8Fq/xlSQw+pEboWYMOY7X8W8fwVD/deVUmuAboDhtBsxu3CnoLSH1Ob2IgS3IV9/+kjIQWFBoqItfym9rQY6o=",
          "mobile": "183****8158",
          "nickname": "微信用户",
          "head_img_url": "https://thirdwx.qlogo.cn/mmopen/vi_32/POgEwh4mIHO4nibH0KlMECNjjGxQUq24ZEaGT4poC6icRiccVGKSyXwibcPq4BWmiaIGuG1icwxaQX6grC9VemZoJ8rg/132"
        },
        "ctitle": "南宁之夜",
        "appId": "0e0ef9c9983ead90",
        "disabled": 0,
        "id": "63dd4df49da8201207e9fc86",
        "up": 0,
        "image": [
          "https://yjygx-old-1307148925.cos.ap-guangzhou.myqcloud.com/data/image/20230204/1675447778770023570.jpg"
        ],
        "star": 5.0,
        "updateTime": 1675738873805,
        "commentTime": 1675447796548,
        "parentId": "answerTag",
        "createTime": 1675447796548,
        "sourceType": "wxapp",
        "tenantId": "295b1813beba4bdb83aac493d7379ca3",
        "cid": "63c60cd85772fd20a909f2b8",
        "lexiconType": 0,
        "status": 1
      },
      {
        "data": {},
        "hidden": false,
        "type": "scenic",
        "down": 0,
        "content": "南宁之夜不错哦",
        "updater": "systemUser",
        "uid": "1378182765241126912",
        "top": 0,
        "user_info": {
          "country": "",
          "uid": "1378182765241126912",
          "gender": "未知",
          "province": "",
          "city": "",
          "email_cipher_text": "",
          "mobile_cipher_text": "QlcoR0zdH5hDaBPCSDrlaD05l/0mrjYdfN4T0B9df2Nsd21aaeHu0Dyz2NKrblc5DPgY5tzEiZi8ARcRIZvz5rfEnYGV3lDVW4tnCoKfmHlWTGBL4aMofEA/BUkMhr8Lz/5FtlAu6Axb5VURPGWKfYVPwjw+V+/wZLZKSFOrv3Y=",
          "mobile": "191****5436",
          "nickname": "微信用户",
          "email": "",
          "head_img_url": "https://thirdwx.qlogo.cn/mmopen/vi_32/POgEwh4mIHO4nibH0KlMECNjjGxQUq24ZEaGT4poC6icRiccVGKSyXwibcPq4BWmiaIGuG1icwxaQX6grC9VemZoJ8rg/132"
        },
        "ctitle": "南宁之夜",
        "appId": "0e0ef9c9983ead90",
        "disabled": 0,
        "id": "63da25529da8201207e9fc84",
        "up": 0,
        "image": [],
        "star": 5.0,
        "updateTime": 1675738887649,
        "commentTime": 1675240786964,
        "parentId": "answerTag",
        "createTime": 1675240786964,
        "sourceType": "wxapp",
        "tenantId": "295b1813beba4bdb83aac493d7379ca3",
        "cid": "63c60cd85772fd20a909f2b8",
        "lexiconType": 0,
        "status": 1
      },
      {
        "data": {},
        "hidden": false,
        "type": "scenic",
        "down": 0,
        "content": "沉浸式打卡南宁之夜！",
        "updater": "systemUser",
        "uid": "1378182765241126912",
        "top": 0,
        "user_info": {
          "country": "",
          "uid": "1378182765241126912",
          "gender": "未知",
          "province": "",
          "city": "",
          "email_cipher_text": "",
          "mobile_cipher_text": "QlcoR0zdH5hDaBPCSDrlaD05l/0mrjYdfN4T0B9df2Nsd21aaeHu0Dyz2NKrblc5DPgY5tzEiZi8ARcRIZvz5rfEnYGV3lDVW4tnCoKfmHlWTGBL4aMofEA/BUkMhr8Lz/5FtlAu6Axb5VURPGWKfYVPwjw+V+/wZLZKSFOrv3Y=",
          "mobile": "191****5436",
          "nickname": "微信用户",
          "email": "",
          "head_img_url": "https://thirdwx.qlogo.cn/mmopen/vi_32/POgEwh4mIHO4nibH0KlMECNjjGxQUq24ZEaGT4poC6icRiccVGKSyXwibcPq4BWmiaIGuG1icwxaQX6grC9VemZoJ8rg/132"
        },
        "ctitle": "南宁之夜",
        "appId": "0e0ef9c9983ead90",
        "disabled": 0,
        "id": "63d516529da8201207e9fc80",
        "up": 0,
        "image": [],
        "star": 5.0,
        "updateTime": 1674909288659,
        "commentTime": 1674909266150,
        "parentId": "answerTag",
        "createTime": 1674909266150,
        "sourceType": "wxapp",
        "tenantId": "295b1813beba4bdb83aac493d7379ca3",
        "cid": "63c60cd85772fd20a909f2b8",
        "lexiconType": 0,
        "status": 1
      },
      {
        "data": {},
        "hidden": false,
        "type": "scenic",
        "down": 0,
        "content": "打卡南宁之夜",
        "updater": "systemUser",
        "uid": "1378182765241126912",
        "top": 0,
        "user_info": {
          "country": "",
          "uid": "1378182765241126912",
          "gender": "未知",
          "province": "",
          "city": "",
          "email_cipher_text": "",
          "mobile_cipher_text": "QlcoR0zdH5hDaBPCSDrlaD05l/0mrjYdfN4T0B9df2Nsd21aaeHu0Dyz2NKrblc5DPgY5tzEiZi8ARcRIZvz5rfEnYGV3lDVW4tnCoKfmHlWTGBL4aMofEA/BUkMhr8Lz/5FtlAu6Axb5VURPGWKfYVPwjw+V+/wZLZKSFOrv3Y=",
          "mobile": "191****5436",
          "nickname": "微信用户",
          "email": "",
          "head_img_url": "https://thirdwx.qlogo.cn/mmopen/vi_32/POgEwh4mIHO4nibH0KlMECNjjGxQUq24ZEaGT4poC6icRiccVGKSyXwibcPq4BWmiaIGuG1icwxaQX6grC9VemZoJ8rg/132"
        },
        "ctitle": "南宁之夜",
        "appId": "0e0ef9c9983ead90",
        "disabled": 0,
        "id": "63d515329da8201207e9fc7e",
        "up": 0,
        "image": [
          "https://yjygx-old-1307148925.cos.ap-guangzhou.myqcloud.com/data/image/20230128/1674908977015016552.jpg"
        ],
        "star": 3.0,
        "updateTime": 1674908993166,
        "commentTime": 1674908978182,
        "parentId": "answerTag",
        "createTime": 1674908978182,
        "sourceType": "wxapp",
        "tenantId": "295b1813beba4bdb83aac493d7379ca3",
        "cid": "63c60cd85772fd20a909f2b8",
        "lexiconType": 0,
        "status": 1
      },
      {
        "data": {},
        "hidden": false,
        "type": "scenic",
        "down": 0,
        "content": "第一次来玩，很多人热闹的不行",
        "updater": "systemUser",
        "uid": "1378182765241126912",
        "top": 0,
        "user_info": {
          "country": "",
          "uid": "1378182765241126912",
          "gender": "未知",
          "province": "",
          "city": "",
          "email_cipher_text": "",
          "mobile_cipher_text": "QlcoR0zdH5hDaBPCSDrlaD05l/0mrjYdfN4T0B9df2Nsd21aaeHu0Dyz2NKrblc5DPgY5tzEiZi8ARcRIZvz5rfEnYGV3lDVW4tnCoKfmHlWTGBL4aMofEA/BUkMhr8Lz/5FtlAu6Axb5VURPGWKfYVPwjw+V+/wZLZKSFOrv3Y=",
          "mobile": "191****5436",
          "nickname": "微信用户",
          "email": "",
          "head_img_url": "https://thirdwx.qlogo.cn/mmopen/vi_32/POgEwh4mIHO4nibH0KlMECNjjGxQUq24ZEaGT4poC6icRiccVGKSyXwibcPq4BWmiaIGuG1icwxaQX6grC9VemZoJ8rg/132"
        },
        "ctitle": "南宁之夜",
        "appId": "0e0ef9c9983ead90",
        "disabled": 0,
        "id": "63d512889da8201207e9fc7a",
        "up": 0,
        "image": [],
        "star": 5.0,
        "updateTime": 1674908320666,
        "commentTime": 1674908296963,
        "parentId": "answerTag",
        "createTime": 1674908296963,
        "sourceType": "wxapp",
        "tenantId": "295b1813beba4bdb83aac493d7379ca3",
        "cid": "63c60cd85772fd20a909f2b8",
        "lexiconType": 0,
        "status": 1
      },
      {
        "data": {},
        "hidden": false,
        "type": "scenic",
        "down": 0,
        "content": "南宁之夜还可以，值得玩一下",
        "updater": "systemUser",
        "uid": "1378182765241126912",
        "top": 0,
        "user_info": {
          "country": "",
          "uid": "1378182765241126912",
          "gender": "未知",
          "province": "",
          "city": "",
          "email_cipher_text": "",
          "mobile_cipher_text": "QlcoR0zdH5hDaBPCSDrlaD05l/0mrjYdfN4T0B9df2Nsd21aaeHu0Dyz2NKrblc5DPgY5tzEiZi8ARcRIZvz5rfEnYGV3lDVW4tnCoKfmHlWTGBL4aMofEA/BUkMhr8Lz/5FtlAu6Axb5VURPGWKfYVPwjw+V+/wZLZKSFOrv3Y=",
          "mobile": "191****5436",
          "nickname": "微信用户",
          "email": "",
          "head_img_url": "https://thirdwx.qlogo.cn/mmopen/vi_32/POgEwh4mIHO4nibH0KlMECNjjGxQUq24ZEaGT4poC6icRiccVGKSyXwibcPq4BWmiaIGuG1icwxaQX6grC9VemZoJ8rg/132"
        },
        "ctitle": "南宁之夜",
        "appId": "0e0ef9c9983ead90",
        "disabled": 0,
        "id": "63d50bb09da8201207e9fc78",
        "up": 0,
        "image": [
          "https://yjygx-old-1307148925.cos.ap-guangzhou.myqcloud.com/data/image/20230128/1674906544006076764.jpg"
        ],
        "star": 5.0,
        "updateTime": 1674906563492,
        "commentTime": 1674906544537,
        "parentId": "answerTag",
        "createTime": 1674906544537,
        "sourceType": "wxapp",
        "tenantId": "295b1813beba4bdb83aac493d7379ca3",
        "cid": "63c60cd85772fd20a909f2b8",
        "lexiconType": 0,
        "status": 1
      },
      {
        "data": {},
        "hidden": false,
        "type": "scenic",
        "down": 0,
        "content": "还不错哦！",
        "updater": "systemUser",
        "uid": "1378182765241126912",
        "top": 0,
        "user_info": {
          "country": "",
          "uid": "1378182765241126912",
          "gender": "未知",
          "province": "",
          "city": "",
          "email_cipher_text": "",
          "mobile_cipher_text": "QlcoR0zdH5hDaBPCSDrlaD05l/0mrjYdfN4T0B9df2Nsd21aaeHu0Dyz2NKrblc5DPgY5tzEiZi8ARcRIZvz5rfEnYGV3lDVW4tnCoKfmHlWTGBL4aMofEA/BUkMhr8Lz/5FtlAu6Axb5VURPGWKfYVPwjw+V+/wZLZKSFOrv3Y=",
          "mobile": "191****5436",
          "nickname": "微信用户",
          "email": "",
          "head_img_url": "https://thirdwx.qlogo.cn/mmopen/vi_32/POgEwh4mIHO4nibH0KlMECNjjGxQUq24ZEaGT4poC6icRiccVGKSyXwibcPq4BWmiaIGuG1icwxaQX6grC9VemZoJ8rg/132"
        },
        "ctitle": "南宁之夜",
        "appId": "0e0ef9c9983ead90",
        "disabled": 0,
        "id": "63d50b6c9da8201207e9fc76",
        "up": 0,
        "image": [
          "https://yjygx-old-1307148925.cos.ap-guangzhou.myqcloud.com/data/image/20230128/1674906466471085514.jpg"
        ],
        "star": 3.0,
        "updateTime": 1674906498363,
        "commentTime": 1674906476359,
        "parentId": "answerTag",
        "createTime": 1674906476359,
        "sourceType": "wxapp",
        "tenantId": "295b1813beba4bdb83aac493d7379ca3",
        "cid": "63c60cd85772fd20a909f2b8",
        "lexiconType": 0,
        "status": 1
      },
      {
        "data": {},
        "hidden": false,
        "type": "scenic",
        "down": 0,
        "content": "南宁之夜打卡完成～很不错✌🏻",
        "updater": "systemUser",
        "uid": "1378182765241126912",
        "top": 0,
        "user_info": {
          "country": "",
          "uid": "1378182765241126912",
          "gender": "未知",
          "province": "",
          "city": "",
          "email_cipher_text": "",
          "mobile_cipher_text": "QlcoR0zdH5hDaBPCSDrlaD05l/0mrjYdfN4T0B9df2Nsd21aaeHu0Dyz2NKrblc5DPgY5tzEiZi8ARcRIZvz5rfEnYGV3lDVW4tnCoKfmHlWTGBL4aMofEA/BUkMhr8Lz/5FtlAu6Axb5VURPGWKfYVPwjw+V+/wZLZKSFOrv3Y=",
          "mobile": "191****5436",
          "nickname": "微信用户",
          "email": "",
          "head_img_url": "https://thirdwx.qlogo.cn/mmopen/vi_32/POgEwh4mIHO4nibH0KlMECNjjGxQUq24ZEaGT4poC6icRiccVGKSyXwibcPq4BWmiaIGuG1icwxaQX6grC9VemZoJ8rg/132"
        },
        "ctitle": "南宁之夜",
        "appId": "0e0ef9c9983ead90",
        "disabled": 0,
        "id": "63d503929da8201207e9fc74",
        "up": 0,
        "image": [
          "https://yjygx-old-1307148925.cos.ap-guangzhou.myqcloud.com/data/image/20230128/1674904454560086686.jpg",
          "https://yjygx-old-1307148925.cos.ap-guangzhou.myqcloud.com/data/image/20230128/1674904454672003690.jpg",
          "https://yjygx-old-1307148925.cos.ap-guangzhou.myqcloud.com/data/image/20230128/1674904454660008913.jpg",
          "https://yjygx-old-1307148925.cos.ap-guangzhou.myqcloud.com/data/image/20230128/1674904454735013280.jpg",
          "https://yjygx-old-1307148925.cos.ap-guangzhou.myqcloud.com/data/image/20230128/1674904454754062973.jpg",
          "https://yjygx-old-1307148925.cos.ap-guangzhou.myqcloud.com/data/image/20230128/1674904454724077789.jpg",
          "https://yjygx-old-1307148925.cos.ap-guangzhou.myqcloud.com/data/image/20230128/1674904454867056642.jpg",
          "https://yjygx-old-1307148925.cos.ap-guangzhou.myqcloud.com/data/image/20230128/1674904454973086425.jpg",
          "https://yjygx-old-1307148925.cos.ap-guangzhou.myqcloud.com/data/image/20230128/1674904459917014841.jpg"
        ],
        "star": 5.0,
        "updateTime": 1674904532154,
        "commentTime": 1674904466586,
        "parentId": "answerTag",
        "createTime": 1674904466586,
        "sourceType": "wxapp",
        "tenantId": "295b1813beba4bdb83aac493d7379ca3",
        "cid": "63c60cd85772fd20a909f2b8",
        "lexiconType": 0,
        "status": 1
      }
    ]
  },
  "errorCode": 0
}