{
  "ret": 0,
  "code": 200,
  "data": {
    "pagination": {
      "total": 12,
      "totalPage": 2,
      "pageSize": 10,
      "currentPage": 2
    },
    "list": [
      {
        "data": {},
        "hidden": false,
        "type": "scenic",
        "down": 0,
        "content": "表演不错~",
        "updater": "systemUser",
        "uid": "1391749767539802112",
        "top": 0,
        "user_info": {
          "country": "",
          "uid": "1391749767539802112",
          "gender": "未知",
          "province": "",
          "city": "",
          "email_cipher_text": "",
          "mobile_cipher_text": "EzbVUOEmhF/sNLWNi+8mIb88r2l5S5W3yaXxoxDYb1XjARGuye4Ho3HVYl/F+PmOKvYC7Yj965RiWUtMQ8YNk0zKucToKvOn9+AUlF98G45VToB2VYuCYlM8s9ZdT1WnvlRXnnCcZECQDmM0DRyQHnpQC48gs7DvMqPCRdbfsiQ=",
          "mobile": "158****4860",
          "nickname": "微信用户",
          "email": "",
          "head_img_url": "https://thirdwx.qlogo.cn/mmopen/vi_32/POgEwh4mIHO4nibH0KlMECNjjGxQUq24ZEaGT4poC6icRiccVGKSyXwibcPq4BWmiaIGuG1icwxaQX6grC9VemZoJ8rg/132"
        },
        "ctitle": "南宁之夜",
        "appId": "0e0ef9c9983ead90",
        "disabled": 0,
        "id": "63d484729da8201207e9fc72",
        "up": 0,
        "image": [
          "https://yjygx-old-1307148925.cos.ap-guangzhou.myqcloud.com/data/image/20230128/1674871921694048401.jpg"
        ],
        "star": 5.0,
        "updateTime": 1674872599062,
        "commentTime": 1674871922684,
        "parentId": "answerTag",
        "createTime": 1674871922684,
        "sourceType": "wxapp",
        "tenantId": "295b1813beba4bdb83aac493d7379ca3",
        "cid": "63c60cd85772fd20a909f2b8",
        "lexiconType": 0,
        "status": 1
      },
      {
        "data": {},
        "hidden": false,
        "type": "scenic",
        "down": 0,
        "content": "表演好看~小吃也很丰富",
        "updater": "systemUser",
        "uid": "1391749767539802112",
        "top": 0,
        "user_info": {
          "country": "",
          "uid": "1391749767539802112",
          "gender": "未知",
          "province": "",
          "city": "",
          "email_cipher_text": "",
          "mobile_cipher_text": "EzbVUOEmhF/sNLWNi+8mIb88r2l5S5W3yaXxoxDYb1XjARGuye4Ho3HVYl/F+PmOKvYC7Yj965RiWUtMQ8YNk0zKucToKvOn9+AUlF98G45VToB2VYuCYlM8s9ZdT1WnvlRXnnCcZECQDmM0DRyQHnpQC48gs7DvMqPCRdbfsiQ=",
          "mobile": "158****4860",
          "nickname": "微信用户",
          "email": "",
          "head_img_url": "https://thirdwx.qlogo.cn/mmopen/vi_32/POgEwh4mIHO4nibH0KlMECNjjGxQUq24ZEaGT4poC6icRiccVGKSyXwibcPq4BWmiaIGuG1icwxaQX6grC9VemZoJ8rg/132"
        },
        "ctitle": "南宁之夜",
        "appId": "0e0ef9c9983ead90",
        "disabled": 0,
        "id": "63d483f89da8201207e9fc70",
        "up": 0,
        "image": [
          "https://yjygx-old-1307148925.cos.ap-guangzhou.myqcloud.com/data/image/20230128/1674871783579057430.jpg"
        ],
        "star": 5.0,
        "updateTime": 1674959819747,
        "commentTime": 1674871800257,
        "parentId": "answerTag",
        "createTime": 1674871800257,
        "sourceType": "wxapp",
        "tenantId": "295b1813beba4bdb83aac493d7379ca3",
        "cid": "63c60cd85772fd20a909f2b8",
        "lexiconType": 0,
        "status": 1
      }
    ]
  },
  "errorCode": 0
}